-- Merging decision tree log ---
manifest
ADDED from C:\Users\Daniel\OneDrive\Users\Daniel\Documents\Dany\Android\Calendar\AndroidManifest.xml:1:1-40:12
INJECTED from C:\Users\Daniel\OneDrive\Users\Daniel\Documents\Dany\Android\Calendar\AndroidManifest.xml:1:1-40:12
INJECTED from C:\Users\Daniel\OneDrive\Users\Daniel\Documents\Dany\Android\Calendar\AndroidManifest.xml:1:1-40:12
INJECTED from C:\Users\Daniel\OneDrive\Users\Daniel\Documents\Dany\Android\Calendar\AndroidManifest.xml:1:1-40:12
INJECTED from C:\Users\Daniel\OneDrive\Users\Daniel\Documents\Dany\Android\Calendar\AndroidManifest.xml:1:1-40:12
INJECTED from C:\Users\Daniel\OneDrive\Users\Daniel\Documents\Dany\Android\Calendar\AndroidManifest.xml:1:1-40:12
INJECTED from C:\Users\Daniel\OneDrive\Users\Daniel\Documents\Dany\Android\Calendar\AndroidManifest.xml:1:1-40:12
	package
		ADDED from C:\Users\Daniel\OneDrive\Users\Daniel\Documents\Dany\Android\Calendar\AndroidManifest.xml:3:5-49
		INJECTED from C:\Users\Daniel\OneDrive\Users\Daniel\Documents\Dany\Android\Calendar\AndroidManifest.xml
		INJECTED from C:\Users\Daniel\OneDrive\Users\Daniel\Documents\Dany\Android\Calendar\AndroidManifest.xml
	android:versionName
		ADDED from C:\Users\Daniel\OneDrive\Users\Daniel\Documents\Dany\Android\Calendar\AndroidManifest.xml:5:5-30
		INJECTED from C:\Users\Daniel\OneDrive\Users\Daniel\Documents\Dany\Android\Calendar\AndroidManifest.xml
		INJECTED from C:\Users\Daniel\OneDrive\Users\Daniel\Documents\Dany\Android\Calendar\AndroidManifest.xml
	xmlns:tools
		ADDED from C:\Users\Daniel\OneDrive\Users\Daniel\Documents\Dany\Android\Calendar\AndroidManifest.xml:2:5-51
	xmlns:android
		ADDED from C:\Users\Daniel\OneDrive\Users\Daniel\Documents\Dany\Android\Calendar\AndroidManifest.xml:1:11-69
	android:versionCode
		ADDED from C:\Users\Daniel\OneDrive\Users\Daniel\Documents\Dany\Android\Calendar\AndroidManifest.xml:4:5-31
		INJECTED from C:\Users\Daniel\OneDrive\Users\Daniel\Documents\Dany\Android\Calendar\AndroidManifest.xml
		INJECTED from C:\Users\Daniel\OneDrive\Users\Daniel\Documents\Dany\Android\Calendar\AndroidManifest.xml
application
ADDED from C:\Users\Daniel\OneDrive\Users\Daniel\Documents\Dany\Android\Calendar\AndroidManifest.xml:8:5-38:19
	android:label
		ADDED from C:\Users\Daniel\OneDrive\Users\Daniel\Documents\Dany\Android\Calendar\AndroidManifest.xml:10:9-41
	android:icon
		ADDED from C:\Users\Daniel\OneDrive\Users\Daniel\Documents\Dany\Android\Calendar\AndroidManifest.xml:9:9-38
	android:theme
		ADDED from C:\Users\Daniel\OneDrive\Users\Daniel\Documents\Dany\Android\Calendar\AndroidManifest.xml:11:9-40
activity#com.balgarski_pravoslaven_calendar.MainActivity
ADDED from C:\Users\Daniel\OneDrive\Users\Daniel\Documents\Dany\Android\Calendar\AndroidManifest.xml:12:9-20:20
	android:label
		ADDED from C:\Users\Daniel\OneDrive\Users\Daniel\Documents\Dany\Android\Calendar\AndroidManifest.xml:14:13-56
	android:name
		ADDED from C:\Users\Daniel\OneDrive\Users\Daniel\Documents\Dany\Android\Calendar\AndroidManifest.xml:13:13-41
intent-filter#action:name:android.intent.action.MAIN+category:name:android.intent.category.LAUNCHER
ADDED from C:\Users\Daniel\OneDrive\Users\Daniel\Documents\Dany\Android\Calendar\AndroidManifest.xml:15:13-19:29
action#android.intent.action.MAIN
ADDED from C:\Users\Daniel\OneDrive\Users\Daniel\Documents\Dany\Android\Calendar\AndroidManifest.xml:16:17-69
	android:name
		ADDED from C:\Users\Daniel\OneDrive\Users\Daniel\Documents\Dany\Android\Calendar\AndroidManifest.xml:16:25-66
category#android.intent.category.LAUNCHER
ADDED from C:\Users\Daniel\OneDrive\Users\Daniel\Documents\Dany\Android\Calendar\AndroidManifest.xml:18:17-77
	android:name
		ADDED from C:\Users\Daniel\OneDrive\Users\Daniel\Documents\Dany\Android\Calendar\AndroidManifest.xml:18:27-74
activity#com.balgarski_pravoslaven_calendar.Praznici
ADDED from C:\Users\Daniel\OneDrive\Users\Daniel\Documents\Dany\Android\Calendar\AndroidManifest.xml:21:9-24:30
	android:label
		ADDED from C:\Users\Daniel\OneDrive\Users\Daniel\Documents\Dany\Android\Calendar\AndroidManifest.xml:23:13-60
	android:name
		ADDED from C:\Users\Daniel\OneDrive\Users\Daniel\Documents\Dany\Android\Calendar\AndroidManifest.xml:22:13-37
activity#com.balgarski_pravoslaven_calendar.Molitvi
ADDED from C:\Users\Daniel\OneDrive\Users\Daniel\Documents\Dany\Android\Calendar\AndroidManifest.xml:25:9-28:20
	android:label
		ADDED from C:\Users\Daniel\OneDrive\Users\Daniel\Documents\Dany\Android\Calendar\AndroidManifest.xml:27:13-59
	android:name
		ADDED from C:\Users\Daniel\OneDrive\Users\Daniel\Documents\Dany\Android\Calendar\AndroidManifest.xml:26:13-36
activity#com.balgarski_pravoslaven_calendar.DatiNaVelikden
ADDED from C:\Users\Daniel\OneDrive\Users\Daniel\Documents\Dany\Android\Calendar\AndroidManifest.xml:29:9-32:20
	android:label
		ADDED from C:\Users\Daniel\OneDrive\Users\Daniel\Documents\Dany\Android\Calendar\AndroidManifest.xml:31:13-68
	android:name
		ADDED from C:\Users\Daniel\OneDrive\Users\Daniel\Documents\Dany\Android\Calendar\AndroidManifest.xml:30:13-43
activity#com.balgarski_pravoslaven_calendar.Kalendar
ADDED from C:\Users\Daniel\OneDrive\Users\Daniel\Documents\Dany\Android\Calendar\AndroidManifest.xml:33:9-37:20
	android:label
		ADDED from C:\Users\Daniel\OneDrive\Users\Daniel\Documents\Dany\Android\Calendar\AndroidManifest.xml:35:13-72
	tools:ignore
		ADDED from C:\Users\Daniel\OneDrive\Users\Daniel\Documents\Dany\Android\Calendar\AndroidManifest.xml:36:13-45
	android:name
		ADDED from C:\Users\Daniel\OneDrive\Users\Daniel\Documents\Dany\Android\Calendar\AndroidManifest.xml:34:13-37
uses-sdk
INJECTED from C:\Users\Daniel\OneDrive\Users\Daniel\Documents\Dany\Android\Calendar\AndroidManifest.xml reason: use-sdk injection requested
INJECTED from C:\Users\Daniel\OneDrive\Users\Daniel\Documents\Dany\Android\Calendar\AndroidManifest.xml
INJECTED from C:\Users\Daniel\OneDrive\Users\Daniel\Documents\Dany\Android\Calendar\AndroidManifest.xml
INJECTED from C:\Users\Daniel\OneDrive\Users\Daniel\Documents\Dany\Android\Calendar\AndroidManifest.xml
INJECTED from C:\Users\Daniel\OneDrive\Users\Daniel\Documents\Dany\Android\Calendar\AndroidManifest.xml
	android:targetSdkVersion
		INJECTED from C:\Users\Daniel\OneDrive\Users\Daniel\Documents\Dany\Android\Calendar\AndroidManifest.xml
		ADDED from C:\Users\Daniel\OneDrive\Users\Daniel\Documents\Dany\Android\Calendar\AndroidManifest.xml
		INJECTED from C:\Users\Daniel\OneDrive\Users\Daniel\Documents\Dany\Android\Calendar\AndroidManifest.xml
	android:minSdkVersion
		INJECTED from C:\Users\Daniel\OneDrive\Users\Daniel\Documents\Dany\Android\Calendar\AndroidManifest.xml
		ADDED from C:\Users\Daniel\OneDrive\Users\Daniel\Documents\Dany\Android\Calendar\AndroidManifest.xml
		INJECTED from C:\Users\Daniel\OneDrive\Users\Daniel\Documents\Dany\Android\Calendar\AndroidManifest.xml
